{
  "images" : [
    {
      "idiom" : "universal",
      "filename" : "d85f915bd726f28c94454de3411b882a.png",
      "scale" : "1x"
    },
    {
      "idiom" : "universal",
      "filename" : "d85f915bd726f28c94454de3411b882a@2x.png",
      "scale" : "2x"
    },
    {
      "idiom" : "universal",
      "scale" : "3x"
    }
  ],
  "info" : {
    "version" : 1,
    "author" : "xcode"
  }
}