{
  "images" : [
    {
      "idiom" : "universal",
      "filename" : "2f24c35416da5b28674aaf357dac4af5.png",
      "scale" : "1x"
    },
    {
      "idiom" : "universal",
      "filename" : "2f24c35416da5b28674aaf357dac4af5@2x.png",
      "scale" : "2x"
    },
    {
      "idiom" : "universal",
      "scale" : "3x"
    }
  ],
  "info" : {
    "version" : 1,
    "author" : "xcode"
  }
}