{
  "images" : [
    {
      "idiom" : "universal",
      "filename" : "864a8b31fadffb1e4ce214786d4894df.png",
      "scale" : "1x"
    },
    {
      "idiom" : "universal",
      "filename" : "864a8b31fadffb1e4ce214786d4894df@2x.png",
      "scale" : "2x"
    },
    {
      "idiom" : "universal",
      "scale" : "3x"
    }
  ],
  "info" : {
    "version" : 1,
    "author" : "xcode"
  }
}