{
  "images" : [
    {
      "idiom" : "universal",
      "filename" : "fa0191e33a36290c5dcccd9083a1b8f0.png",
      "scale" : "1x"
    },
    {
      "idiom" : "universal",
      "filename" : "fa0191e33a36290c5dcccd9083a1b8f0@2x.png",
      "scale" : "2x"
    },
    {
      "idiom" : "universal",
      "scale" : "3x"
    }
  ],
  "info" : {
    "version" : 1,
    "author" : "xcode"
  }
}