{
  "images" : [
    {
      "idiom" : "universal",
      "filename" : "614545843a42d7a56a6ea1900622cb7e.png",
      "scale" : "1x"
    },
    {
      "idiom" : "universal",
      "filename" : "614545843a42d7a56a6ea1900622cb7e@2x.png",
      "scale" : "2x"
    },
    {
      "idiom" : "universal",
      "scale" : "3x"
    }
  ],
  "info" : {
    "version" : 1,
    "author" : "xcode"
  }
}