{
  "images" : [
    {
      "idiom" : "universal",
      "filename" : "Screenshot 2020-09-23 at 4.23.02 PM.png",
      "scale" : "1x"
    },
    {
      "idiom" : "universal",
      "filename" : "Screenshot 2020-09-23 at 4.23.02 PM-1.png",
      "scale" : "2x"
    },
    {
      "idiom" : "universal",
      "filename" : "Screenshot 2020-09-23 at 4.23.02 PM-2.png",
      "scale" : "3x"
    }
  ],
  "info" : {
    "version" : 1,
    "author" : "xcode"
  }
}